^C:\USERS\MICHA\SOURCE\REPOS\ARRAY-TEST\ARRAY-TEST\ARRAYTEST.C|C:\USERS\MICHA\SOURCE\REPOS\ARRAY-TEST\ARRAY-TEST\FUNCTIONTEST.C
C:\USERS\MICHA\SOURCE\REPOS\ARRAY-TEST\ARRAY-TEST\DEBUG\VC142.PDB
C:\USERS\MICHA\SOURCE\REPOS\ARRAY-TEST\ARRAY-TEST\DEBUG\VC142.IDB
C:\USERS\MICHA\SOURCE\REPOS\ARRAY-TEST\ARRAY-TEST\DEBUG\ARRAYTEST.OBJ
^C:\USERS\MICHA\SOURCE\REPOS\ARRAY-TEST\ARRAY-TEST\ARRAYTEST.C
C:\USERS\MICHA\SOURCE\REPOS\ARRAY-TEST\ARRAY-TEST\DEBUG\ARRAYTEST.OBJ
^C:\USERS\MICHA\SOURCE\REPOS\ARRAY-TEST\ARRAY-TEST\FUNCTIONTEST.C
C:\USERS\MICHA\SOURCE\REPOS\ARRAY-TEST\ARRAY-TEST\DEBUG\VC142.PDB
C:\USERS\MICHA\SOURCE\REPOS\ARRAY-TEST\ARRAY-TEST\DEBUG\VC142.IDB
C:\USERS\MICHA\SOURCE\REPOS\ARRAY-TEST\ARRAY-TEST\DEBUG\FUNCTIONTEST.OBJ
