^C:\USERS\MICHA\SOURCE\REPOS\ARRAY-TEST\ARRAY-TEST\DEBUG\ARRAYTEST.OBJ|C:\USERS\MICHA\SOURCE\REPOS\ARRAY-TEST\ARRAY-TEST\DEBUG\FUNCTIONTEST.OBJ
/OUT:"C:\USERS\MICHA\SOURCE\REPOS\ARRAY-TEST\DEBUG\ARRAY-TEST.EXE" /INCREMENTAL /NOLOGO KERNEL32.LIB USER32.LIB GDI32.LIB WINSPOOL.LIB COMDLG32.LIB ADVAPI32.LIB SHELL32.LIB OLE32.LIB OLEAUT32.LIB UUID.LIB ODBC32.LIB ODBCCP32.LIB /MANIFEST /MANIFESTUAC:"level='asInvoker' uiAccess='false'" /manifest:embed /DEBUG:FASTLINK /PDB:"C:\USERS\MICHA\SOURCE\REPOS\ARRAY-TEST\DEBUG\ARRAY-TEST.PDB" /SUBSYSTEM:CONSOLE /TLBID:1 /DYNAMICBASE /NXCOMPAT /IMPLIB:"C:\USERS\MICHA\SOURCE\REPOS\ARRAY-TEST\DEBUG\ARRAY-TEST.LIB" /MACHINE:X86 DEBUG\FUNCTIONTEST.OBJ
DEBUG\ARRAYTEST.OBJ
