^D:\ONEDRIVE\VIRTUALISIERUNG\SHARED FILES\MS PROJEKT\MSJ\LOOPBACK_STARTER_MSJ_ANSI_C_TI_DSP_20APR20_V1.1\LOOPBACK_STARTER_MSJ\FM_ARCTANDEMOD.C|D:\ONEDRIVE\VIRTUALISIERUNG\SHARED FILES\MS PROJEKT\MSJ\LOOPBACK_STARTER_MSJ_ANSI_C_TI_DSP_20APR20_V1.1\LOOPBACK_STARTER_MSJ\FM_REALADD.C|D:\ONEDRIVE\VIRTUALISIERUNG\SHARED FILES\MS PROJEKT\MSJ\LOOPBACK_STARTER_MSJ_ANSI_C_TI_DSP_20APR20_V1.1\LOOPBACK_STARTER_MSJ\FM_REALDEMOD.C|D:\ONEDRIVE\VIRTUALISIERUNG\SHARED FILES\MS PROJEKT\MSJ\LOOPBACK_STARTER_MSJ_ANSI_C_TI_DSP_20APR20_V1.1\LOOPBACK_STARTER_MSJ\HILBERT_FIR.C|D:\ONEDRIVE\VIRTUALISIERUNG\SHARED FILES\MS PROJEKT\MSJ\LOOPBACK_STARTER_MSJ_ANSI_C_TI_DSP_20APR20_V1.1\LOOPBACK_STARTER_MSJ\LOOPBACK_STARTER_MSJ.C|D:\ONEDRIVE\VIRTUALISIERUNG\SHARED FILES\MS PROJEKT\MSJ\LOOPBACK_STARTER_MSJ_ANSI_C_TI_DSP_20APR20_V1.1\LOOPBACK_STARTER_MSJ\MATCHEDF.C|D:\ONEDRIVE\VIRTUALISIERUNG\SHARED FILES\MS PROJEKT\MSJ\LOOPBACK_STARTER_MSJ_ANSI_C_TI_DSP_20APR20_V1.1\LOOPBACK_STARTER_MSJ\N_DELAY.C|D:\ONEDRIVE\VIRTUALISIERUNG\SHARED FILES\MS PROJEKT\MSJ\LOOPBACK_STARTER_MSJ_ANSI_C_TI_DSP_20APR20_V1.1\LOOPBACK_STARTER_MSJ\PROCESS_ONE_SAMPLE.C
D:\ONEDRIVE\VIRTUALISIERUNG\SHARED FILES\MS PROJEKT\MSJ\LOOPBACK_STARTER_MSJ_ANSI_C_TI_DSP_20APR20_V1.1\LOOPBACK_STARTER_MSJ_ANSI_C\DEBUG\VC142.PDB
D:\ONEDRIVE\VIRTUALISIERUNG\SHARED FILES\MS PROJEKT\MSJ\LOOPBACK_STARTER_MSJ_ANSI_C_TI_DSP_20APR20_V1.1\LOOPBACK_STARTER_MSJ_ANSI_C\DEBUG\VC142.IDB
D:\ONEDRIVE\VIRTUALISIERUNG\SHARED FILES\MS PROJEKT\MSJ\LOOPBACK_STARTER_MSJ_ANSI_C_TI_DSP_20APR20_V1.1\LOOPBACK_STARTER_MSJ_ANSI_C\DEBUG\FM_REALDEMOD.OBJ
D:\ONEDRIVE\VIRTUALISIERUNG\SHARED FILES\MS PROJEKT\MSJ\LOOPBACK_STARTER_MSJ_ANSI_C_TI_DSP_20APR20_V1.1\LOOPBACK_STARTER_MSJ_ANSI_C\DEBUG\FM_REALADD.OBJ
D:\ONEDRIVE\VIRTUALISIERUNG\SHARED FILES\MS PROJEKT\MSJ\LOOPBACK_STARTER_MSJ_ANSI_C_TI_DSP_20APR20_V1.1\LOOPBACK_STARTER_MSJ_ANSI_C\DEBUG\FM_ARCTANDEMOD.OBJ
^D:\ONEDRIVE\VIRTUALISIERUNG\SHARED FILES\MS PROJEKT\MSJ\LOOPBACK_STARTER_MSJ_ANSI_C_TI_DSP_20APR20_V1.1\LOOPBACK_STARTER_MSJ\HILBERT_FIR.C|D:\ONEDRIVE\VIRTUALISIERUNG\SHARED FILES\MS PROJEKT\MSJ\LOOPBACK_STARTER_MSJ_ANSI_C_TI_DSP_20APR20_V1.1\LOOPBACK_STARTER_MSJ\LOOPBACK_STARTER_MSJ.C|D:\ONEDRIVE\VIRTUALISIERUNG\SHARED FILES\MS PROJEKT\MSJ\LOOPBACK_STARTER_MSJ_ANSI_C_TI_DSP_20APR20_V1.1\LOOPBACK_STARTER_MSJ\MATCHEDF.C|D:\ONEDRIVE\VIRTUALISIERUNG\SHARED FILES\MS PROJEKT\MSJ\LOOPBACK_STARTER_MSJ_ANSI_C_TI_DSP_20APR20_V1.1\LOOPBACK_STARTER_MSJ\N_DELAY.C|D:\ONEDRIVE\VIRTUALISIERUNG\SHARED FILES\MS PROJEKT\MSJ\LOOPBACK_STARTER_MSJ_ANSI_C_TI_DSP_20APR20_V1.1\LOOPBACK_STARTER_MSJ\PROCESS_ONE_SAMPLE.C
D:\ONEDRIVE\VIRTUALISIERUNG\SHARED FILES\MS PROJEKT\MSJ\LOOPBACK_STARTER_MSJ_ANSI_C_TI_DSP_20APR20_V1.1\LOOPBACK_STARTER_MSJ_ANSI_C\DEBUG\VC142.PDB
D:\ONEDRIVE\VIRTUALISIERUNG\SHARED FILES\MS PROJEKT\MSJ\LOOPBACK_STARTER_MSJ_ANSI_C_TI_DSP_20APR20_V1.1\LOOPBACK_STARTER_MSJ_ANSI_C\DEBUG\VC142.IDB
D:\ONEDRIVE\VIRTUALISIERUNG\SHARED FILES\MS PROJEKT\MSJ\LOOPBACK_STARTER_MSJ_ANSI_C_TI_DSP_20APR20_V1.1\LOOPBACK_STARTER_MSJ_ANSI_C\DEBUG\PROCESS_ONE_SAMPLE.OBJ
D:\ONEDRIVE\VIRTUALISIERUNG\SHARED FILES\MS PROJEKT\MSJ\LOOPBACK_STARTER_MSJ_ANSI_C_TI_DSP_20APR20_V1.1\LOOPBACK_STARTER_MSJ_ANSI_C\DEBUG\N_DELAY.OBJ
^D:\ONEDRIVE\VIRTUALISIERUNG\SHARED FILES\MS PROJEKT\MSJ\LOOPBACK_STARTER_MSJ_ANSI_C_TI_DSP_20APR20_V1.1\LOOPBACK_STARTER_MSJ\HILBERT_FIR.C|D:\ONEDRIVE\VIRTUALISIERUNG\SHARED FILES\MS PROJEKT\MSJ\LOOPBACK_STARTER_MSJ_ANSI_C_TI_DSP_20APR20_V1.1\LOOPBACK_STARTER_MSJ\LOOPBACK_STARTER_MSJ.C|D:\ONEDRIVE\VIRTUALISIERUNG\SHARED FILES\MS PROJEKT\MSJ\LOOPBACK_STARTER_MSJ_ANSI_C_TI_DSP_20APR20_V1.1\LOOPBACK_STARTER_MSJ\MATCHEDF.C|D:\ONEDRIVE\VIRTUALISIERUNG\SHARED FILES\MS PROJEKT\MSJ\LOOPBACK_STARTER_MSJ_ANSI_C_TI_DSP_20APR20_V1.1\LOOPBACK_STARTER_MSJ\PROCESS_ONE_SAMPLE.C
D:\ONEDRIVE\VIRTUALISIERUNG\SHARED FILES\MS PROJEKT\MSJ\LOOPBACK_STARTER_MSJ_ANSI_C_TI_DSP_20APR20_V1.1\LOOPBACK_STARTER_MSJ_ANSI_C\DEBUG\VC142.PDB
D:\ONEDRIVE\VIRTUALISIERUNG\SHARED FILES\MS PROJEKT\MSJ\LOOPBACK_STARTER_MSJ_ANSI_C_TI_DSP_20APR20_V1.1\LOOPBACK_STARTER_MSJ_ANSI_C\DEBUG\VC142.IDB
D:\ONEDRIVE\VIRTUALISIERUNG\SHARED FILES\MS PROJEKT\MSJ\LOOPBACK_STARTER_MSJ_ANSI_C_TI_DSP_20APR20_V1.1\LOOPBACK_STARTER_MSJ_ANSI_C\DEBUG\PROCESS_ONE_SAMPLE.OBJ
^D:\ONEDRIVE\VIRTUALISIERUNG\SHARED FILES\MS PROJEKT\MSJ\LOOPBACK_STARTER_MSJ_ANSI_C_TI_DSP_20APR20_V1.1\LOOPBACK_STARTER_MSJ\HILBERT_FIR.C|D:\ONEDRIVE\VIRTUALISIERUNG\SHARED FILES\MS PROJEKT\MSJ\LOOPBACK_STARTER_MSJ_ANSI_C_TI_DSP_20APR20_V1.1\LOOPBACK_STARTER_MSJ\LOOPBACK_STARTER_MSJ.C|D:\ONEDRIVE\VIRTUALISIERUNG\SHARED FILES\MS PROJEKT\MSJ\LOOPBACK_STARTER_MSJ_ANSI_C_TI_DSP_20APR20_V1.1\LOOPBACK_STARTER_MSJ\MATCHEDF.C
D:\ONEDRIVE\VIRTUALISIERUNG\SHARED FILES\MS PROJEKT\MSJ\LOOPBACK_STARTER_MSJ_ANSI_C_TI_DSP_20APR20_V1.1\LOOPBACK_STARTER_MSJ_ANSI_C\DEBUG\VC142.PDB
D:\ONEDRIVE\VIRTUALISIERUNG\SHARED FILES\MS PROJEKT\MSJ\LOOPBACK_STARTER_MSJ_ANSI_C_TI_DSP_20APR20_V1.1\LOOPBACK_STARTER_MSJ_ANSI_C\DEBUG\VC142.IDB
D:\ONEDRIVE\VIRTUALISIERUNG\SHARED FILES\MS PROJEKT\MSJ\LOOPBACK_STARTER_MSJ_ANSI_C_TI_DSP_20APR20_V1.1\LOOPBACK_STARTER_MSJ_ANSI_C\DEBUG\MATCHEDF.OBJ
D:\ONEDRIVE\VIRTUALISIERUNG\SHARED FILES\MS PROJEKT\MSJ\LOOPBACK_STARTER_MSJ_ANSI_C_TI_DSP_20APR20_V1.1\LOOPBACK_STARTER_MSJ_ANSI_C\DEBUG\LOOPBACK_STARTER_MSJ.OBJ
D:\ONEDRIVE\VIRTUALISIERUNG\SHARED FILES\MS PROJEKT\MSJ\LOOPBACK_STARTER_MSJ_ANSI_C_TI_DSP_20APR20_V1.1\LOOPBACK_STARTER_MSJ_ANSI_C\DEBUG\HILBERT_FIR.OBJ
^D:\ONEDRIVE\VIRTUALISIERUNG\SHARED FILES\MS PROJEKT\MSJ\LOOPBACK_STARTER_MSJ_ANSI_C_TI_DSP_20APR20_V1.1\LOOPBACK_STARTER_MSJ\FM_REALADD.C|D:\ONEDRIVE\VIRTUALISIERUNG\SHARED FILES\MS PROJEKT\MSJ\LOOPBACK_STARTER_MSJ_ANSI_C_TI_DSP_20APR20_V1.1\LOOPBACK_STARTER_MSJ\FM_REALDEMOD.C|D:\ONEDRIVE\VIRTUALISIERUNG\SHARED FILES\MS PROJEKT\MSJ\LOOPBACK_STARTER_MSJ_ANSI_C_TI_DSP_20APR20_V1.1\LOOPBACK_STARTER_MSJ\HILBERT_FIR.C|D:\ONEDRIVE\VIRTUALISIERUNG\SHARED FILES\MS PROJEKT\MSJ\LOOPBACK_STARTER_MSJ_ANSI_C_TI_DSP_20APR20_V1.1\LOOPBACK_STARTER_MSJ\LOOPBACK_STARTER_MSJ.C|D:\ONEDRIVE\VIRTUALISIERUNG\SHARED FILES\MS PROJEKT\MSJ\LOOPBACK_STARTER_MSJ_ANSI_C_TI_DSP_20APR20_V1.1\LOOPBACK_STARTER_MSJ\PROCESS_ONE_SAMPLE.C
D:\ONEDRIVE\VIRTUALISIERUNG\SHARED FILES\MS PROJEKT\MSJ\LOOPBACK_STARTER_MSJ_ANSI_C_TI_DSP_20APR20_V1.1\LOOPBACK_STARTER_MSJ_ANSI_C\DEBUG\VC142.PDB
D:\ONEDRIVE\VIRTUALISIERUNG\SHARED FILES\MS PROJEKT\MSJ\LOOPBACK_STARTER_MSJ_ANSI_C_TI_DSP_20APR20_V1.1\LOOPBACK_STARTER_MSJ_ANSI_C\DEBUG\VC142.IDB
D:\ONEDRIVE\VIRTUALISIERUNG\SHARED FILES\MS PROJEKT\MSJ\LOOPBACK_STARTER_MSJ_ANSI_C_TI_DSP_20APR20_V1.1\LOOPBACK_STARTER_MSJ_ANSI_C\DEBUG\PROCESS_ONE_SAMPLE.OBJ
D:\ONEDRIVE\VIRTUALISIERUNG\SHARED FILES\MS PROJEKT\MSJ\LOOPBACK_STARTER_MSJ_ANSI_C_TI_DSP_20APR20_V1.1\LOOPBACK_STARTER_MSJ_ANSI_C\DEBUG\LOOPBACK_STARTER_MSJ.OBJ
D:\ONEDRIVE\VIRTUALISIERUNG\SHARED FILES\MS PROJEKT\MSJ\LOOPBACK_STARTER_MSJ_ANSI_C_TI_DSP_20APR20_V1.1\LOOPBACK_STARTER_MSJ_ANSI_C\DEBUG\FM_REALDEMOD.OBJ
^D:\ONEDRIVE\VIRTUALISIERUNG\SHARED FILES\MS PROJEKT\MSJ\LOOPBACK_STARTER_MSJ_ANSI_C_TI_DSP_20APR20_V1.1\LOOPBACK_STARTER_MSJ\FM_REALADD.C|D:\ONEDRIVE\VIRTUALISIERUNG\SHARED FILES\MS PROJEKT\MSJ\LOOPBACK_STARTER_MSJ_ANSI_C_TI_DSP_20APR20_V1.1\LOOPBACK_STARTER_MSJ\HILBERT_FIR.C|D:\ONEDRIVE\VIRTUALISIERUNG\SHARED FILES\MS PROJEKT\MSJ\LOOPBACK_STARTER_MSJ_ANSI_C_TI_DSP_20APR20_V1.1\LOOPBACK_STARTER_MSJ\LOOPBACK_STARTER_MSJ.C|D:\ONEDRIVE\VIRTUALISIERUNG\SHARED FILES\MS PROJEKT\MSJ\LOOPBACK_STARTER_MSJ_ANSI_C_TI_DSP_20APR20_V1.1\LOOPBACK_STARTER_MSJ\PROCESS_ONE_SAMPLE.C
D:\ONEDRIVE\VIRTUALISIERUNG\SHARED FILES\MS PROJEKT\MSJ\LOOPBACK_STARTER_MSJ_ANSI_C_TI_DSP_20APR20_V1.1\LOOPBACK_STARTER_MSJ_ANSI_C\DEBUG\VC142.PDB
D:\ONEDRIVE\VIRTUALISIERUNG\SHARED FILES\MS PROJEKT\MSJ\LOOPBACK_STARTER_MSJ_ANSI_C_TI_DSP_20APR20_V1.1\LOOPBACK_STARTER_MSJ_ANSI_C\DEBUG\VC142.IDB
D:\ONEDRIVE\VIRTUALISIERUNG\SHARED FILES\MS PROJEKT\MSJ\LOOPBACK_STARTER_MSJ_ANSI_C_TI_DSP_20APR20_V1.1\LOOPBACK_STARTER_MSJ_ANSI_C\DEBUG\LOOPBACK_STARTER_MSJ.OBJ
^D:\ONEDRIVE\VIRTUALISIERUNG\SHARED FILES\MS PROJEKT\MSJ\LOOPBACK_STARTER_MSJ_ANSI_C_TI_DSP_20APR20_V1.1\LOOPBACK_STARTER_MSJ\FM_REALADD.C|D:\ONEDRIVE\VIRTUALISIERUNG\SHARED FILES\MS PROJEKT\MSJ\LOOPBACK_STARTER_MSJ_ANSI_C_TI_DSP_20APR20_V1.1\LOOPBACK_STARTER_MSJ\HILBERT_FIR.C|D:\ONEDRIVE\VIRTUALISIERUNG\SHARED FILES\MS PROJEKT\MSJ\LOOPBACK_STARTER_MSJ_ANSI_C_TI_DSP_20APR20_V1.1\LOOPBACK_STARTER_MSJ\PROCESS_ONE_SAMPLE.C
D:\ONEDRIVE\VIRTUALISIERUNG\SHARED FILES\MS PROJEKT\MSJ\LOOPBACK_STARTER_MSJ_ANSI_C_TI_DSP_20APR20_V1.1\LOOPBACK_STARTER_MSJ_ANSI_C\DEBUG\VC142.PDB
D:\ONEDRIVE\VIRTUALISIERUNG\SHARED FILES\MS PROJEKT\MSJ\LOOPBACK_STARTER_MSJ_ANSI_C_TI_DSP_20APR20_V1.1\LOOPBACK_STARTER_MSJ_ANSI_C\DEBUG\VC142.IDB
D:\ONEDRIVE\VIRTUALISIERUNG\SHARED FILES\MS PROJEKT\MSJ\LOOPBACK_STARTER_MSJ_ANSI_C_TI_DSP_20APR20_V1.1\LOOPBACK_STARTER_MSJ_ANSI_C\DEBUG\HILBERT_FIR.OBJ
D:\ONEDRIVE\VIRTUALISIERUNG\SHARED FILES\MS PROJEKT\MSJ\LOOPBACK_STARTER_MSJ_ANSI_C_TI_DSP_20APR20_V1.1\LOOPBACK_STARTER_MSJ_ANSI_C\DEBUG\FM_REALADD.OBJ
^D:\ONEDRIVE\VIRTUALISIERUNG\SHARED FILES\MS PROJEKT\MSJ\LOOPBACK_STARTER_MSJ_ANSI_C_TI_DSP_20APR20_V1.1\LOOPBACK_STARTER_MSJ\FM_REALADD.C|D:\ONEDRIVE\VIRTUALISIERUNG\SHARED FILES\MS PROJEKT\MSJ\LOOPBACK_STARTER_MSJ_ANSI_C_TI_DSP_20APR20_V1.1\LOOPBACK_STARTER_MSJ\PROCESS_ONE_SAMPLE.C
D:\ONEDRIVE\VIRTUALISIERUNG\SHARED FILES\MS PROJEKT\MSJ\LOOPBACK_STARTER_MSJ_ANSI_C_TI_DSP_20APR20_V1.1\LOOPBACK_STARTER_MSJ_ANSI_C\DEBUG\VC142.PDB
D:\ONEDRIVE\VIRTUALISIERUNG\SHARED FILES\MS PROJEKT\MSJ\LOOPBACK_STARTER_MSJ_ANSI_C_TI_DSP_20APR20_V1.1\LOOPBACK_STARTER_MSJ_ANSI_C\DEBUG\VC142.IDB
D:\ONEDRIVE\VIRTUALISIERUNG\SHARED FILES\MS PROJEKT\MSJ\LOOPBACK_STARTER_MSJ_ANSI_C_TI_DSP_20APR20_V1.1\LOOPBACK_STARTER_MSJ_ANSI_C\DEBUG\FM_REALADD.OBJ
^D:\ONEDRIVE\VIRTUALISIERUNG\SHARED FILES\MS PROJEKT\MSJ\LOOPBACK_STARTER_MSJ_ANSI_C_TI_DSP_20APR20_V1.1\LOOPBACK_STARTER_MSJ\FM_ARCTANDEMOD.C|D:\ONEDRIVE\VIRTUALISIERUNG\SHARED FILES\MS PROJEKT\MSJ\LOOPBACK_STARTER_MSJ_ANSI_C_TI_DSP_20APR20_V1.1\LOOPBACK_STARTER_MSJ\FM_REALADD.C|D:\ONEDRIVE\VIRTUALISIERUNG\SHARED FILES\MS PROJEKT\MSJ\LOOPBACK_STARTER_MSJ_ANSI_C_TI_DSP_20APR20_V1.1\LOOPBACK_STARTER_MSJ\FM_REALDEMOD.C|D:\ONEDRIVE\VIRTUALISIERUNG\SHARED FILES\MS PROJEKT\MSJ\LOOPBACK_STARTER_MSJ_ANSI_C_TI_DSP_20APR20_V1.1\LOOPBACK_STARTER_MSJ\HILBERT_FIR.C|D:\ONEDRIVE\VIRTUALISIERUNG\SHARED FILES\MS PROJEKT\MSJ\LOOPBACK_STARTER_MSJ_ANSI_C_TI_DSP_20APR20_V1.1\LOOPBACK_STARTER_MSJ\LOOPBACK_STARTER_MSJ.C|D:\ONEDRIVE\VIRTUALISIERUNG\SHARED FILES\MS PROJEKT\MSJ\LOOPBACK_STARTER_MSJ_ANSI_C_TI_DSP_20APR20_V1.1\LOOPBACK_STARTER_MSJ\MATCHEDF.C|D:\ONEDRIVE\VIRTUALISIERUNG\SHARED FILES\MS PROJEKT\MSJ\LOOPBACK_STARTER_MSJ_ANSI_C_TI_DSP_20APR20_V1.1\LOOPBACK_STARTER_MSJ\N_DELAY.C
D:\ONEDRIVE\VIRTUALISIERUNG\SHARED FILES\MS PROJEKT\MSJ\LOOPBACK_STARTER_MSJ_ANSI_C_TI_DSP_20APR20_V1.1\LOOPBACK_STARTER_MSJ_ANSI_C\DEBUG\VC142.PDB
D:\ONEDRIVE\VIRTUALISIERUNG\SHARED FILES\MS PROJEKT\MSJ\LOOPBACK_STARTER_MSJ_ANSI_C_TI_DSP_20APR20_V1.1\LOOPBACK_STARTER_MSJ_ANSI_C\DEBUG\VC142.IDB
D:\ONEDRIVE\VIRTUALISIERUNG\SHARED FILES\MS PROJEKT\MSJ\LOOPBACK_STARTER_MSJ_ANSI_C_TI_DSP_20APR20_V1.1\LOOPBACK_STARTER_MSJ_ANSI_C\DEBUG\MATCHEDF.OBJ
D:\ONEDRIVE\VIRTUALISIERUNG\SHARED FILES\MS PROJEKT\MSJ\LOOPBACK_STARTER_MSJ_ANSI_C_TI_DSP_20APR20_V1.1\LOOPBACK_STARTER_MSJ_ANSI_C\DEBUG\HILBERT_FIR.OBJ
D:\ONEDRIVE\VIRTUALISIERUNG\SHARED FILES\MS PROJEKT\MSJ\LOOPBACK_STARTER_MSJ_ANSI_C_TI_DSP_20APR20_V1.1\LOOPBACK_STARTER_MSJ_ANSI_C\DEBUG\FM_REALDEMOD.OBJ
D:\ONEDRIVE\VIRTUALISIERUNG\SHARED FILES\MS PROJEKT\MSJ\LOOPBACK_STARTER_MSJ_ANSI_C_TI_DSP_20APR20_V1.1\LOOPBACK_STARTER_MSJ_ANSI_C\DEBUG\FM_REALADD.OBJ
D:\ONEDRIVE\VIRTUALISIERUNG\SHARED FILES\MS PROJEKT\MSJ\LOOPBACK_STARTER_MSJ_ANSI_C_TI_DSP_20APR20_V1.1\LOOPBACK_STARTER_MSJ_ANSI_C\DEBUG\FM_ARCTANDEMOD.OBJ
D:\ONEDRIVE\VIRTUALISIERUNG\SHARED FILES\MS PROJEKT\MSJ\LOOPBACK_STARTER_MSJ_ANSI_C_TI_DSP_20APR20_V1.1\LOOPBACK_STARTER_MSJ_ANSI_C\DEBUG\N_DELAY.OBJ
^D:\ONEDRIVE\VIRTUALISIERUNG\SHARED FILES\MS PROJEKT\MSJ\LOOPBACK_STARTER_MSJ_ANSI_C_TI_DSP_20APR20_V1.1\LOOPBACK_STARTER_MSJ\N_DELAY.C
D:\ONEDRIVE\VIRTUALISIERUNG\SHARED FILES\MS PROJEKT\MSJ\LOOPBACK_STARTER_MSJ_ANSI_C_TI_DSP_20APR20_V1.1\LOOPBACK_STARTER_MSJ_ANSI_C\DEBUG\N_DELAY.OBJ
^D:\ONEDRIVE\VIRTUALISIERUNG\SHARED FILES\MS PROJEKT\MSJ\LOOPBACK_STARTER_MSJ_ANSI_C_TI_DSP_20APR20_V1.1\LOOPBACK_STARTER_MSJ\FM_REALDEMOD.C
D:\ONEDRIVE\VIRTUALISIERUNG\SHARED FILES\MS PROJEKT\MSJ\LOOPBACK_STARTER_MSJ_ANSI_C_TI_DSP_20APR20_V1.1\LOOPBACK_STARTER_MSJ_ANSI_C\DEBUG\FM_REALDEMOD.OBJ
^D:\ONEDRIVE\VIRTUALISIERUNG\SHARED FILES\MS PROJEKT\MSJ\LOOPBACK_STARTER_MSJ_ANSI_C_TI_DSP_20APR20_V1.1\LOOPBACK_STARTER_MSJ\FM_ARCTANDEMOD.C|D:\ONEDRIVE\VIRTUALISIERUNG\SHARED FILES\MS PROJEKT\MSJ\LOOPBACK_STARTER_MSJ_ANSI_C_TI_DSP_20APR20_V1.1\LOOPBACK_STARTER_MSJ\LOOPBACK_STARTER_MSJ.C|D:\ONEDRIVE\VIRTUALISIERUNG\SHARED FILES\MS PROJEKT\MSJ\LOOPBACK_STARTER_MSJ_ANSI_C_TI_DSP_20APR20_V1.1\LOOPBACK_STARTER_MSJ\MATCHEDF.C
D:\ONEDRIVE\VIRTUALISIERUNG\SHARED FILES\MS PROJEKT\MSJ\LOOPBACK_STARTER_MSJ_ANSI_C_TI_DSP_20APR20_V1.1\LOOPBACK_STARTER_MSJ_ANSI_C\DEBUG\VC142.PDB
D:\ONEDRIVE\VIRTUALISIERUNG\SHARED FILES\MS PROJEKT\MSJ\LOOPBACK_STARTER_MSJ_ANSI_C_TI_DSP_20APR20_V1.1\LOOPBACK_STARTER_MSJ_ANSI_C\DEBUG\VC142.IDB
D:\ONEDRIVE\VIRTUALISIERUNG\SHARED FILES\MS PROJEKT\MSJ\LOOPBACK_STARTER_MSJ_ANSI_C_TI_DSP_20APR20_V1.1\LOOPBACK_STARTER_MSJ_ANSI_C\DEBUG\MATCHEDF.OBJ
D:\ONEDRIVE\VIRTUALISIERUNG\SHARED FILES\MS PROJEKT\MSJ\LOOPBACK_STARTER_MSJ_ANSI_C_TI_DSP_20APR20_V1.1\LOOPBACK_STARTER_MSJ_ANSI_C\DEBUG\FM_ARCTANDEMOD.OBJ
^D:\ONEDRIVE\VIRTUALISIERUNG\SHARED FILES\MS PROJEKT\MSJ\LOOPBACK_STARTER_MSJ_ANSI_C_TI_DSP_20APR20_V1.1\LOOPBACK_STARTER_MSJ\FM_ARCTANDEMOD.C
D:\ONEDRIVE\VIRTUALISIERUNG\SHARED FILES\MS PROJEKT\MSJ\LOOPBACK_STARTER_MSJ_ANSI_C_TI_DSP_20APR20_V1.1\LOOPBACK_STARTER_MSJ_ANSI_C\DEBUG\FM_ARCTANDEMOD.OBJ
^D:\ONEDRIVE\VIRTUALISIERUNG\SHARED FILES\MS PROJEKT\MSJ\LOOPBACK_STARTER_MSJ_ANSI_C_TI_DSP_20APR20_V1.1\LOOPBACK_STARTER_MSJ\LOOPBACK_STARTER_MSJ-ALL_WYR.C|D:\ONEDRIVE\VIRTUALISIERUNG\SHARED FILES\MS PROJEKT\MSJ\LOOPBACK_STARTER_MSJ_ANSI_C_TI_DSP_20APR20_V1.1\LOOPBACK_STARTER_MSJ\MATCHEDF.C
D:\ONEDRIVE\VIRTUALISIERUNG\SHARED FILES\MS PROJEKT\MSJ\LOOPBACK_STARTER_MSJ_ANSI_C_TI_DSP_20APR20_V1.1\LOOPBACK_STARTER_MSJ_ANSI_C\DEBUG\VC142.PDB
D:\ONEDRIVE\VIRTUALISIERUNG\SHARED FILES\MS PROJEKT\MSJ\LOOPBACK_STARTER_MSJ_ANSI_C_TI_DSP_20APR20_V1.1\LOOPBACK_STARTER_MSJ_ANSI_C\DEBUG\VC142.IDB
D:\ONEDRIVE\VIRTUALISIERUNG\SHARED FILES\MS PROJEKT\MSJ\LOOPBACK_STARTER_MSJ_ANSI_C_TI_DSP_20APR20_V1.1\LOOPBACK_STARTER_MSJ_ANSI_C\DEBUG\MATCHEDF.OBJ
D:\ONEDRIVE\VIRTUALISIERUNG\SHARED FILES\MS PROJEKT\MSJ\LOOPBACK_STARTER_MSJ_ANSI_C_TI_DSP_20APR20_V1.1\LOOPBACK_STARTER_MSJ_ANSI_C\DEBUG\LOOPBACK_STARTER_MSJ-ALL_WYR.OBJ
^D:\ONEDRIVE\VIRTUALISIERUNG\SHARED FILES\MS PROJEKT\MSJ\LOOPBACK_STARTER_MSJ_ANSI_C_TI_DSP_20APR20_V1.1\LOOPBACK_STARTER_MSJ\LOOPBACK_STARTER_MSJ-ALL_WYR.C
D:\ONEDRIVE\VIRTUALISIERUNG\SHARED FILES\MS PROJEKT\MSJ\LOOPBACK_STARTER_MSJ_ANSI_C_TI_DSP_20APR20_V1.1\LOOPBACK_STARTER_MSJ_ANSI_C\DEBUG\VC142.PDB
^D:\ONEDRIVE\VIRTUALISIERUNG\SHARED FILES\MS PROJEKT\MSJ\LOOPBACK_STARTER_MSJ_ANSI_C_TI_DSP_20APR20_V1.1\LOOPBACK_STARTER_MSJ\MATCHEDF.C
D:\ONEDRIVE\VIRTUALISIERUNG\SHARED FILES\MS PROJEKT\MSJ\LOOPBACK_STARTER_MSJ_ANSI_C_TI_DSP_20APR20_V1.1\LOOPBACK_STARTER_MSJ_ANSI_C\DEBUG\VC142.PDB
^D:\ONEDRIVE\VIRTUALISIERUNG\SHARED FILES\MS PROJEKT\MSJ\LOOPBACK_STARTER_MSJ_ANSI_C_TI_DSP_20APR20_V1.1\LOOPBACK_STARTER_MSJ\FM_REALADD.C|D:\ONEDRIVE\VIRTUALISIERUNG\SHARED FILES\MS PROJEKT\MSJ\LOOPBACK_STARTER_MSJ_ANSI_C_TI_DSP_20APR20_V1.1\LOOPBACK_STARTER_MSJ\HILBERT_FIR.C
D:\ONEDRIVE\VIRTUALISIERUNG\SHARED FILES\MS PROJEKT\MSJ\LOOPBACK_STARTER_MSJ_ANSI_C_TI_DSP_20APR20_V1.1\LOOPBACK_STARTER_MSJ_ANSI_C\DEBUG\VC142.PDB
D:\ONEDRIVE\VIRTUALISIERUNG\SHARED FILES\MS PROJEKT\MSJ\LOOPBACK_STARTER_MSJ_ANSI_C_TI_DSP_20APR20_V1.1\LOOPBACK_STARTER_MSJ_ANSI_C\DEBUG\VC142.IDB
D:\ONEDRIVE\VIRTUALISIERUNG\SHARED FILES\MS PROJEKT\MSJ\LOOPBACK_STARTER_MSJ_ANSI_C_TI_DSP_20APR20_V1.1\LOOPBACK_STARTER_MSJ_ANSI_C\DEBUG\HILBERT_FIR.OBJ
D:\ONEDRIVE\VIRTUALISIERUNG\SHARED FILES\MS PROJEKT\MSJ\LOOPBACK_STARTER_MSJ_ANSI_C_TI_DSP_20APR20_V1.1\LOOPBACK_STARTER_MSJ_ANSI_C\DEBUG\FM_REALADD.OBJ
^D:\ONEDRIVE\VIRTUALISIERUNG\SHARED FILES\MS PROJEKT\MSJ\LOOPBACK_STARTER_MSJ_ANSI_C_TI_DSP_20APR20_V1.1\LOOPBACK_STARTER_MSJ\FM_REALADD.C
D:\ONEDRIVE\VIRTUALISIERUNG\SHARED FILES\MS PROJEKT\MSJ\LOOPBACK_STARTER_MSJ_ANSI_C_TI_DSP_20APR20_V1.1\LOOPBACK_STARTER_MSJ_ANSI_C\DEBUG\VC142.PDB
^D:\ONEDRIVE\VIRTUALISIERUNG\SHARED FILES\MS PROJEKT\MSJ\LOOPBACK_STARTER_MSJ_ANSI_C_TI_DSP_20APR20_V1.1\LOOPBACK_STARTER_MSJ\HILBERT_FIR.C|D:\ONEDRIVE\VIRTUALISIERUNG\SHARED FILES\MS PROJEKT\MSJ\LOOPBACK_STARTER_MSJ_ANSI_C_TI_DSP_20APR20_V1.1\LOOPBACK_STARTER_MSJ_ANSI_C\ROUNDFLOAT.C
D:\ONEDRIVE\VIRTUALISIERUNG\SHARED FILES\MS PROJEKT\MSJ\LOOPBACK_STARTER_MSJ_ANSI_C_TI_DSP_20APR20_V1.1\LOOPBACK_STARTER_MSJ_ANSI_C\DEBUG\VC142.PDB
D:\ONEDRIVE\VIRTUALISIERUNG\SHARED FILES\MS PROJEKT\MSJ\LOOPBACK_STARTER_MSJ_ANSI_C_TI_DSP_20APR20_V1.1\LOOPBACK_STARTER_MSJ_ANSI_C\DEBUG\VC142.IDB
D:\ONEDRIVE\VIRTUALISIERUNG\SHARED FILES\MS PROJEKT\MSJ\LOOPBACK_STARTER_MSJ_ANSI_C_TI_DSP_20APR20_V1.1\LOOPBACK_STARTER_MSJ_ANSI_C\DEBUG\ROUNDFLOAT.OBJ
D:\ONEDRIVE\VIRTUALISIERUNG\SHARED FILES\MS PROJEKT\MSJ\LOOPBACK_STARTER_MSJ_ANSI_C_TI_DSP_20APR20_V1.1\LOOPBACK_STARTER_MSJ_ANSI_C\DEBUG\HILBERT_FIR.OBJ
^D:\ONEDRIVE\VIRTUALISIERUNG\SHARED FILES\MS PROJEKT\MSJ\LOOPBACK_STARTER_MSJ_ANSI_C_TI_DSP_20APR20_V1.1\LOOPBACK_STARTER_MSJ\HILBERT_FIR.C
D:\ONEDRIVE\VIRTUALISIERUNG\SHARED FILES\MS PROJEKT\MSJ\LOOPBACK_STARTER_MSJ_ANSI_C_TI_DSP_20APR20_V1.1\LOOPBACK_STARTER_MSJ_ANSI_C\DEBUG\VC142.PDB
D:\ONEDRIVE\VIRTUALISIERUNG\SHARED FILES\MS PROJEKT\MSJ\LOOPBACK_STARTER_MSJ_ANSI_C_TI_DSP_20APR20_V1.1\LOOPBACK_STARTER_MSJ_ANSI_C\DEBUG\VC142.IDB
D:\ONEDRIVE\VIRTUALISIERUNG\SHARED FILES\MS PROJEKT\MSJ\LOOPBACK_STARTER_MSJ_ANSI_C_TI_DSP_20APR20_V1.1\LOOPBACK_STARTER_MSJ_ANSI_C\DEBUG\HILBERT_FIR.OBJ
^D:\ONEDRIVE\VIRTUALISIERUNG\SHARED FILES\MS PROJEKT\MSJ\LOOPBACK_STARTER_MSJ_ANSI_C_TI_DSP_20APR20_V1.1\LOOPBACK_STARTER_MSJ_ANSI_C\ROUNDFLOAT.C
D:\ONEDRIVE\VIRTUALISIERUNG\SHARED FILES\MS PROJEKT\MSJ\LOOPBACK_STARTER_MSJ_ANSI_C_TI_DSP_20APR20_V1.1\LOOPBACK_STARTER_MSJ_ANSI_C\DEBUG\VC142.PDB
D:\ONEDRIVE\VIRTUALISIERUNG\SHARED FILES\MS PROJEKT\MSJ\LOOPBACK_STARTER_MSJ_ANSI_C_TI_DSP_20APR20_V1.1\LOOPBACK_STARTER_MSJ_ANSI_C\DEBUG\VC142.IDB
D:\ONEDRIVE\VIRTUALISIERUNG\SHARED FILES\MS PROJEKT\MSJ\LOOPBACK_STARTER_MSJ_ANSI_C_TI_DSP_20APR20_V1.1\LOOPBACK_STARTER_MSJ_ANSI_C\DEBUG\ROUNDFLOAT.OBJ
^D:\ONEDRIVE\VIRTUALISIERUNG\SHARED FILES\MS PROJEKT\MSJ\LOOPBACK_STARTER_MSJ_ANSI_C_TI_DSP_20APR20_V1.1\LOOPBACK_STARTER_MSJ\PROCESS_ONE_SAMPLE.C
D:\ONEDRIVE\VIRTUALISIERUNG\SHARED FILES\MS PROJEKT\MSJ\LOOPBACK_STARTER_MSJ_ANSI_C_TI_DSP_20APR20_V1.1\LOOPBACK_STARTER_MSJ_ANSI_C\DEBUG\VC142.PDB
D:\ONEDRIVE\VIRTUALISIERUNG\SHARED FILES\MS PROJEKT\MSJ\LOOPBACK_STARTER_MSJ_ANSI_C_TI_DSP_20APR20_V1.1\LOOPBACK_STARTER_MSJ_ANSI_C\DEBUG\VC142.IDB
D:\ONEDRIVE\VIRTUALISIERUNG\SHARED FILES\MS PROJEKT\MSJ\LOOPBACK_STARTER_MSJ_ANSI_C_TI_DSP_20APR20_V1.1\LOOPBACK_STARTER_MSJ_ANSI_C\DEBUG\PROCESS_ONE_SAMPLE.OBJ
