^D:\ONEDRIVE\VIRTUALISIERUNG\SHARED FILES\MS PROJEKT\MSJ\LOOPBACK_STARTER_MSJ_ANSI_C_TI_DSP_20APR20_V1.1\LOOPBACK_STARTER_MSJ_ANSI_C\DEBUG\FM_ARCTANDEMOD.OBJ|D:\ONEDRIVE\VIRTUALISIERUNG\SHARED FILES\MS PROJEKT\MSJ\LOOPBACK_STARTER_MSJ_ANSI_C_TI_DSP_20APR20_V1.1\LOOPBACK_STARTER_MSJ_ANSI_C\DEBUG\FM_REALADD.OBJ|D:\ONEDRIVE\VIRTUALISIERUNG\SHARED FILES\MS PROJEKT\MSJ\LOOPBACK_STARTER_MSJ_ANSI_C_TI_DSP_20APR20_V1.1\LOOPBACK_STARTER_MSJ_ANSI_C\DEBUG\FM_REALDEMOD.OBJ|D:\ONEDRIVE\VIRTUALISIERUNG\SHARED FILES\MS PROJEKT\MSJ\LOOPBACK_STARTER_MSJ_ANSI_C_TI_DSP_20APR20_V1.1\LOOPBACK_STARTER_MSJ_ANSI_C\DEBUG\HILBERT_FIR.OBJ|D:\ONEDRIVE\VIRTUALISIERUNG\SHARED FILES\MS PROJEKT\MSJ\LOOPBACK_STARTER_MSJ_ANSI_C_TI_DSP_20APR20_V1.1\LOOPBACK_STARTER_MSJ_ANSI_C\DEBUG\LOOPBACK_STARTER_MSJ-ALL_WYR.OBJ|D:\ONEDRIVE\VIRTUALISIERUNG\SHARED FILES\MS PROJEKT\MSJ\LOOPBACK_STARTER_MSJ_ANSI_C_TI_DSP_20APR20_V1.1\LOOPBACK_STARTER_MSJ_ANSI_C\DEBUG\MATCHEDF.OBJ|D:\ONEDRIVE\VIRTUALISIERUNG\SHARED FILES\MS PROJEKT\MSJ\LOOPBACK_STARTER_MSJ_ANSI_C_TI_DSP_20APR20_V1.1\LOOPBACK_STARTER_MSJ_ANSI_C\DEBUG\N_DELAY.OBJ|D:\ONEDRIVE\VIRTUALISIERUNG\SHARED FILES\MS PROJEKT\MSJ\LOOPBACK_STARTER_MSJ_ANSI_C_TI_DSP_20APR20_V1.1\LOOPBACK_STARTER_MSJ_ANSI_C\DEBUG\PROCESS_ONE_SAMPLE.OBJ|D:\ONEDRIVE\VIRTUALISIERUNG\SHARED FILES\MS PROJEKT\MSJ\LOOPBACK_STARTER_MSJ_ANSI_C_TI_DSP_20APR20_V1.1\LOOPBACK_STARTER_MSJ_ANSI_C\DEBUG\ROUNDFLOAT.OBJ
/OUT:"D:\ONEDRIVE\VIRTUALISIERUNG\SHARED FILES\MS PROJEKT\MSJ\LOOPBACK_STARTER_MSJ_ANSI_C_TI_DSP_20APR20_V1.1\LOOPBACK_STARTER_MSJ_ANSI_C\DEBUG\LOOPBACK_STARTER_MSJ.EXE" /INCREMENTAL /NOLOGO KERNEL32.LIB USER32.LIB GDI32.LIB WINSPOOL.LIB COMDLG32.LIB ADVAPI32.LIB SHELL32.LIB OLE32.LIB OLEAUT32.LIB UUID.LIB ODBC32.LIB ODBCCP32.LIB /MANIFEST /MANIFESTUAC:"level='asInvoker' uiAccess='false'" /manifest:embed /DEBUG:FASTLINK /PDB:"D:\ONEDRIVE\VIRTUALISIERUNG\SHARED FILES\MS PROJEKT\MSJ\LOOPBACK_STARTER_MSJ_ANSI_C_TI_DSP_20APR20_V1.1\LOOPBACK_STARTER_MSJ_ANSI_C\DEBUG\LOOPBACK_STARTER_MSJ.PDB" /TLBID:1 /DYNAMICBASE /NXCOMPAT /IMPLIB:"D:\ONEDRIVE\VIRTUALISIERUNG\SHARED FILES\MS PROJEKT\MSJ\LOOPBACK_STARTER_MSJ_ANSI_C_TI_DSP_20APR20_V1.1\LOOPBACK_STARTER_MSJ_ANSI_C\DEBUG\LOOPBACK_STARTER_MSJ.LIB" /MACHINE:X86 DEBUG\FM_ARCTANDEMOD.OBJ
DEBUG\FM_REALADD.OBJ
DEBUG\FM_REALDEMOD.OBJ
DEBUG\HILBERT_FIR.OBJ
"DEBUG\LOOPBACK_STARTER_MSJ-ALL_WYR.OBJ"
DEBUG\MATCHEDF.OBJ
DEBUG\N_DELAY.OBJ
DEBUG\PROCESS_ONE_SAMPLE.OBJ
DEBUG\ROUNDFLOAT.OBJ
