^C:\USERS\K0LIBRI\DESKTOP\FINA\LOOPBACK_STARTER_MSJ_ANSI_C\DEBUG\DELAY_IN_PHASE.OBJ|C:\USERS\K0LIBRI\DESKTOP\FINA\LOOPBACK_STARTER_MSJ_ANSI_C\DEBUG\FIR_FILTER.OBJ|C:\USERS\K0LIBRI\DESKTOP\FINA\LOOPBACK_STARTER_MSJ_ANSI_C\DEBUG\LOOPBACK_STARTER_MSJ.OBJ|C:\USERS\K0LIBRI\DESKTOP\FINA\LOOPBACK_STARTER_MSJ_ANSI_C\DEBUG\MATCHED_FILTER.OBJ|C:\USERS\K0LIBRI\DESKTOP\FINA\LOOPBACK_STARTER_MSJ_ANSI_C\DEBUG\PROCESS_ONE_SAMPLE.OBJ
/OUT:"C:\USERS\K0LIBRI\DESKTOP\FINA\LOOPBACK_STARTER_MSJ_ANSI_C\DEBUG\LOOPBACK_STARTER_MSJ.EXE" /INCREMENTAL /NOLOGO KERNEL32.LIB USER32.LIB GDI32.LIB WINSPOOL.LIB COMDLG32.LIB ADVAPI32.LIB SHELL32.LIB OLE32.LIB OLEAUT32.LIB UUID.LIB ODBC32.LIB ODBCCP32.LIB /MANIFEST /MANIFESTUAC:"level='asInvoker' uiAccess='false'" /manifest:embed /DEBUG:FASTLINK /PDB:"C:\USERS\K0LIBRI\DESKTOP\FINA\LOOPBACK_STARTER_MSJ_ANSI_C\DEBUG\LOOPBACK_STARTER_MSJ.PDB" /TLBID:1 /DYNAMICBASE /NXCOMPAT /IMPLIB:"C:\USERS\K0LIBRI\DESKTOP\FINA\LOOPBACK_STARTER_MSJ_ANSI_C\DEBUG\LOOPBACK_STARTER_MSJ.LIB" /MACHINE:X86 DEBUG\LOOPBACK_STARTER_MSJ.OBJ
DEBUG\PROCESS_ONE_SAMPLE.OBJ
DEBUG\DELAY_IN_PHASE.OBJ
DEBUG\FIR_FILTER.OBJ
DEBUG\MATCHED_FILTER.OBJ
^C:\USERS\K0LIBRI\DESKTOP\FINAL\LOOPBACK_STARTER_MSJ_ANSI_C\DEBUG\DELAY_IN_PHASE.OBJ|C:\USERS\K0LIBRI\DESKTOP\FINAL\LOOPBACK_STARTER_MSJ_ANSI_C\DEBUG\FIR_FILTER.OBJ|C:\USERS\K0LIBRI\DESKTOP\FINAL\LOOPBACK_STARTER_MSJ_ANSI_C\DEBUG\LOOPBACK_STARTER_MSJ.OBJ|C:\USERS\K0LIBRI\DESKTOP\FINAL\LOOPBACK_STARTER_MSJ_ANSI_C\DEBUG\MATCHED_FILTER.OBJ|C:\USERS\K0LIBRI\DESKTOP\FINAL\LOOPBACK_STARTER_MSJ_ANSI_C\DEBUG\PROCESS_ONE_SAMPLE.OBJ
/OUT:"C:\USERS\K0LIBRI\DESKTOP\FINAL\LOOPBACK_STARTER_MSJ_ANSI_C\DEBUG\LOOPBACK_STARTER_MSJ.EXE" /INCREMENTAL /NOLOGO KERNEL32.LIB USER32.LIB GDI32.LIB WINSPOOL.LIB COMDLG32.LIB ADVAPI32.LIB SHELL32.LIB OLE32.LIB OLEAUT32.LIB UUID.LIB ODBC32.LIB ODBCCP32.LIB /MANIFEST /MANIFESTUAC:"level='asInvoker' uiAccess='false'" /manifest:embed /DEBUG:FASTLINK /PDB:"C:\USERS\K0LIBRI\DESKTOP\FINAL\LOOPBACK_STARTER_MSJ_ANSI_C\DEBUG\LOOPBACK_STARTER_MSJ.PDB" /TLBID:1 /DYNAMICBASE /NXCOMPAT /IMPLIB:"C:\USERS\K0LIBRI\DESKTOP\FINAL\LOOPBACK_STARTER_MSJ_ANSI_C\DEBUG\LOOPBACK_STARTER_MSJ.LIB" /MACHINE:X86 DEBUG\LOOPBACK_STARTER_MSJ.OBJ
DEBUG\PROCESS_ONE_SAMPLE.OBJ
DEBUG\DELAY_IN_PHASE.OBJ
DEBUG\FIR_FILTER.OBJ
DEBUG\MATCHED_FILTER.OBJ
^D:\ONEDRIVE\VIRTUALISIERUNG\SHARED FILES\MS PROJEKT\MSJ\FINAL\LOOPBACK_STARTER_MSJ_ANSI_C\DEBUG\BP_FILTER.OBJ|D:\ONEDRIVE\VIRTUALISIERUNG\SHARED FILES\MS PROJEKT\MSJ\FINAL\LOOPBACK_STARTER_MSJ_ANSI_C\DEBUG\DELAY_IN_PHASE.OBJ|D:\ONEDRIVE\VIRTUALISIERUNG\SHARED FILES\MS PROJEKT\MSJ\FINAL\LOOPBACK_STARTER_MSJ_ANSI_C\DEBUG\FIR_FILTER.OBJ|D:\ONEDRIVE\VIRTUALISIERUNG\SHARED FILES\MS PROJEKT\MSJ\FINAL\LOOPBACK_STARTER_MSJ_ANSI_C\DEBUG\LOOPBACK_STARTER_MSJ_ALL_WYR.OBJ|D:\ONEDRIVE\VIRTUALISIERUNG\SHARED FILES\MS PROJEKT\MSJ\FINAL\LOOPBACK_STARTER_MSJ_ANSI_C\DEBUG\MATCHED_FILTER.OBJ|D:\ONEDRIVE\VIRTUALISIERUNG\SHARED FILES\MS PROJEKT\MSJ\FINAL\LOOPBACK_STARTER_MSJ_ANSI_C\DEBUG\PROCESS_ONE_SAMPLE.OBJ
/OUT:"D:\ONEDRIVE\VIRTUALISIERUNG\SHARED FILES\MS PROJEKT\MSJ\FINAL\LOOPBACK_STARTER_MSJ_ANSI_C\DEBUG\LOOPBACK_STARTER_MSJ.EXE" /INCREMENTAL /NOLOGO KERNEL32.LIB USER32.LIB GDI32.LIB WINSPOOL.LIB COMDLG32.LIB ADVAPI32.LIB SHELL32.LIB OLE32.LIB OLEAUT32.LIB UUID.LIB ODBC32.LIB ODBCCP32.LIB /MANIFEST /MANIFESTUAC:"level='asInvoker' uiAccess='false'" /manifest:embed /DEBUG:FASTLINK /PDB:"D:\ONEDRIVE\VIRTUALISIERUNG\SHARED FILES\MS PROJEKT\MSJ\FINAL\LOOPBACK_STARTER_MSJ_ANSI_C\DEBUG\LOOPBACK_STARTER_MSJ.PDB" /TLBID:1 /DYNAMICBASE /NXCOMPAT /IMPLIB:"D:\ONEDRIVE\VIRTUALISIERUNG\SHARED FILES\MS PROJEKT\MSJ\FINAL\LOOPBACK_STARTER_MSJ_ANSI_C\DEBUG\LOOPBACK_STARTER_MSJ.LIB" /MACHINE:X86 DEBUG\LOOPBACK_STARTER_MSJ_ALL_WYR.OBJ
DEBUG\PROCESS_ONE_SAMPLE.OBJ
DEBUG\BP_FILTER.OBJ
DEBUG\DELAY_IN_PHASE.OBJ
DEBUG\FIR_FILTER.OBJ
DEBUG\MATCHED_FILTER.OBJ
